<?xml version="1.0" encoding="UTF-8" standalone="no"?>
<!-- Created with Inkscape (http://www.inkscape.org/) -->

<svg
   xmlns:dc="http://purl.org/dc/elements/1.1/"
   xmlns:cc="http://creativecommons.org/ns#"
   xmlns:rdf="http://www.w3.org/1999/02/22-rdf-syntax-ns#"
   xmlns:svg="http://www.w3.org/2000/svg"
   xmlns="http://www.w3.org/2000/svg"
   width="512"
   height="512"
   viewBox="0 0 135.46666 135.46667"
   version="1.1"
   id="svg16"
   inkscape:version="0.92.3 (2405546, 2018-03-11)"
   sodipodi:docname="logo.svg">
  <defs
     id="defs10" />
  <sodipodi:namedview
     id="base"
     pagecolor="#ffffff"
     bordercolor="#666666"
     borderopacity="1.0"
     inkscape:pageopacity="0.0"
     inkscape:pageshadow="2"
     inkscape:zoom="0.7"
     inkscape:cx="14.999997"
     inkscape:cy="560"
     inkscape:document-units="mm"
     inkscape:current-layer="layer1"
     showgrid="false"
     showguides="true"
     inkscape:guide-bbox="true"
     inkscape:window-width="1855"
     inkscape:window-height="1018"
     inkscape:window-x="65"
     inkscape:window-y="28"
     inkscape:window-maximized="1"
     units="px">
    <sodipodi:guide
       position="-210.91071,279.32441"
       orientation="1,0"
       id="guide84"
       inkscape:locked="false" />
  </sodipodi:namedview>
  <metadata
     id="metadata13">
    <rdf:RDF>
      <cc:Work
         rdf:about="">
        <dc:format>image/svg+xml</dc:format>
        <dc:type
           rdf:resource="http://purl.org/dc/dcmitype/StillImage" />
        <dc:title></dc:title>
      </cc:Work>
    </rdf:RDF>
  </metadata>
  <g
     inkscape:label="Layer 1"
     inkscape:groupmode="layer"
     id="layer1"
     transform="translate(0,-161.53332)">
    <g
       aria-label="6"
       transform="matrix(1.1014346,0,0,0.77259787,-308.6594,-206.89387)"
       style="font-style:normal;font-weight:normal;font-size:40px;line-height:1.25;font-family:sans-serif;letter-spacing:0px;word-spacing:0px;fill:#000000;fill-opacity:1;stroke:none"
       id="flowRoot34">
      <path
         d="m 343.375,559.14844 q -12.75,0 -20.25,8.71875 -7.40625,8.71875 -7.40625,23.90625 0,15.09375 7.40625,23.90625 7.5,8.71875 20.25,8.71875 12.75,0 20.15625,-8.71875 7.5,-8.8125 7.5,-23.90625 0,-15.1875 -7.5,-23.90625 -7.40625,-8.71875 -20.15625,-8.71875 z m 37.59375,-59.34375 v 17.25 q -7.125,-3.375 -14.4375,-5.15625 -7.21875,-1.78125 -14.34375,-1.78125 -18.75,0 -28.6875,12.65625 -9.84375,12.65625 -11.25,38.25 5.53125,-8.15625 13.875,-12.46875 8.34375,-4.40625 18.375,-4.40625 21.09375,0 33.28125,12.84375 12.28125,12.75 12.28125,34.78125 0,21.5625 -12.75,34.59375 -12.75,13.03125 -33.9375,13.03125 -24.28125,0 -37.125,-18.5625 -12.84375,-18.65625 -12.84375,-54 0,-33.1875 15.75,-52.875 15.75,-19.78125 42.28125,-19.78125 7.125,0 14.34375,1.40625 7.3125,1.40625 15.1875,4.21875 z"
         style="font-size:192px"
         id="path132"
         inkscape:connector-curvature="0" />
    </g>
    <rect
       id="rect46"
       width="9.7700233"
       height="132.29167"
       x="53.033829"
       y="163.95236"
       style="stroke-width:0.15184431" />
    <rect
       id="rect46-8"
       width="9.7700233"
       height="132.29167"
       x="75.830544"
       y="163.95236"
       style="stroke-width:0.15184431" />
  </g>
</svg>
